{
  "project_info": {
    "project_number": "500092497163",
    "firebase_url": "https://quicsolv-c523e.firebaseio.com",
    "project_id": "quicsolv-c523e",
    "storage_bucket": "quicsolv-c523e.appspot.com"
  },
  "client": [
    {
      "client_info": {
        "mobilesdk_app_id": "1:500092497163:android:2fe28e16bd12f13049860e",
        "android_client_info": {
          "package_name": "com.c.quicsolv"
        }
      },
      "oauth_client": [
        {
          "client_id": "500092497163-4erit177o7ocrhfgdr5rbsgb60bdct99.apps.googleusercontent.com",
          "client_type": 1,
          "android_info": {
            "package_name": "com.c.quicsolv",
            "certificate_hash": "226f1b5896af46f32327a710ff83d98650caf437"
          }
        },
        {
          "client_id": "500092497163-nd2v6gnuukms2eqj9ejle86c89mfrael.apps.googleusercontent.com",
          "client_type": 3
        }
      ],
      "api_key": [
        {
          "current_key": "AIzaSyDIUkAa4qNkG7FJIM5J4kJFd_hY16u6huY"
        }
      ],
      "services": {
        "appinvite_service": {
          "other_platform_oauth_client": [
            {
              "client_id": "500092497163-nd2v6gnuukms2eqj9ejle86c89mfrael.apps.googleusercontent.com",
              "client_type": 3
            }
          ]
        }
      }
    },
    {
      "client_info": {
        "mobilesdk_app_id": "1:500092497163:android:c422ef2b1781787549860e",
        "android_client_info": {
          "package_name": "com.example.kishorg.mvmvapp"
        }
      },
      "oauth_client": [
        {
          "client_id": "500092497163-md8mjg2uo2e1ptd4hc43l86vh96kr8ah.apps.googleusercontent.com",
          "client_type": 1,
          "android_info": {
            "package_name": "com.example.kishorg.mvmvapp",
            "certificate_hash": "226f1b5896af46f32327a710ff83d98650caf437"
          }
        },
        {
          "client_id": "500092497163-nd2v6gnuukms2eqj9ejle86c89mfrael.apps.googleusercontent.com",
          "client_type": 3
        }
      ],
      "api_key": [
        {
          "current_key": "AIzaSyDIUkAa4qNkG7FJIM5J4kJFd_hY16u6huY"
        }
      ],
      "services": {
        "appinvite_service": {
          "other_platform_oauth_client": [
            {
              "client_id": "500092497163-nd2v6gnuukms2eqj9ejle86c89mfrael.apps.googleusercontent.com",
              "client_type": 3
            }
          ]
        }
      }
    },
    {
      "client_info": {
        "mobilesdk_app_id": "1:500092497163:android:9e27da47069c5abe49860e",
        "android_client_info": {
          "package_name": "com.example.quicsolvpremiumapp"
        }
      },
      "oauth_client": [
        {
          "client_id": "500092497163-nd2v6gnuukms2eqj9ejle86c89mfrael.apps.googleusercontent.com",
          "client_type": 3
        }
      ],
      "api_key": [
        {
          "current_key": "AIzaSyDIUkAa4qNkG7FJIM5J4kJFd_hY16u6huY"
        }
      ],
      "services": {
        "appinvite_service": {
          "other_platform_oauth_client": [
            {
              "client_id": "500092497163-nd2v6gnuukms2eqj9ejle86c89mfrael.apps.googleusercontent.com",
              "client_type": 3
            }
          ]
        }
      }
    }
  ],
  "configuration_version": "1"
}